# WaveFront *.obj file (generated by Autodesk ATF)

mtllib propellerB.mtl

g propellerB

v 77.993318 67.733003 6.000000
v 77.148957 67.321168 1.866492
v 76.292619 71.213441 0.000001
v 76.427552 70.396333 -0.500000
v 75.872148 70.248323 -0.500000
v 76.026956 71.250184 -0.500000
v 79.586625 71.148118 0.000001
v 79.286058 69.363450 0.000001
v 79.037881 68.803193 6.000000
v 79.586625 70.331849 6.000000
v 79.037881 72.676789 6.000000
v 76.452043 67.222871 0.000001
v 74.835076 67.368394 0.000001
v 72.670533 69.740510 0.000001
v 77.993318 73.746980 6.000000
v 77.057626 74.187631 5.000001
v 72.873162 72.310968 0.000001
v 75.738565 71.160691 0.000001
v 76.589463 74.262368 0.000001
v 72.505540 71.286843 6.000000
v 73.249147 72.919725 4.018040
v 79.534234 71.556260 6.000000
v 77.121103 73.045533 7.000000
v 73.800409 72.036485 7.000000
v 72.598359 71.751611 5.000001
v 75.387605 68.282777 7.000000
v 74.059655 69.073243 7.000000
v 78.351556 69.664895 7.000000
v 72.821588 69.200120 2.597312
v 74.714265 74.045884 6.000000
v 74.146424 73.757196 1.970405
v 73.253709 68.589067 2.257717
v 73.941575 67.902360 4.083637
v 75.034387 67.292337 5.000001
v 75.363939 67.223054 6.000000
v 78.762010 72.998780 2.372409
v 76.550096 70.723954 0.000001
v 79.037881 72.676789 0.000001
v 77.993318 67.733003 0.000001
v 76.109773 70.202783 0.000001
v 73.778871 67.989976 0.000001
v 75.650079 70.434297 0.000001
v 73.995042 73.654786 0.000001
v 75.363939 74.256913 0.000001
v 75.387605 73.197198 7.000000
v 74.059655 72.406739 7.000000
v 78.470811 71.444673 7.000000
v 77.121103 68.434442 7.000000
v 73.800409 69.443482 7.000000
v 72.594438 69.741838 1.207855
v 74.475404 67.528520 3.990597
v 76.589463 67.217607 6.000000
v 74.225228 67.676118 6.000000
v 73.115815 68.678933 6.000000
v 74.904130 74.144395 1.941195
v 75.047860 74.191560 1.207855
v 73.025148 72.596887 3.581113
v 72.547029 70.062013 6.000000
v 73.150148 72.776887 6.000000
v 74.341485 73.893563 2.834108
v 79.497583 71.738137 1.207855
v 77.534600 74.000466 4.111081
v 76.452043 74.257096 6.000000
v 78.278741 73.438020 3.932691
v 79.329660 72.179254 2.502279
v 79.493654 69.728372 5.000001
v 78.809098 68.534623 3.984535
v 77.524209 67.470750 2.576983
v 79.096498 68.901826 3.587915
v 76.519464 70.986604 -0.500000
v 77.993318 73.746980 0.000001
v 75.511033 70.781495 -0.500000
v 56.244271 88.413835 3.839668
v 93.861337 91.723298 4.699013
v 93.819032 91.657335 4.894143
v 94.479928 91.640695 4.600689
v 80.082536 72.450715 2.122252
v 80.751695 73.484895 2.546496
v 79.809297 72.020326 1.699263
v 91.827104 84.233018 2.539940
v 89.052324 80.579301 1.600672
v 97.348146 89.506967 2.380832
v 97.348329 89.506814 2.380486
v 79.805925 77.101403 5.000001
v 74.242372 74.737436 2.288696
v 72.817353 76.166238 2.418755
v 71.869645 78.141961 1.437649
v 71.125947 78.227571 2.277640
v 74.558976 74.893541 1.101880
v 55.645112 89.865343 4.131311
v 55.067429 88.856759 4.775328
v 63.746469 61.432801 1.897078
v 58.366593 50.857636 3.888321
v 71.950662 69.142411 1.814208
v 77.044160 67.288415 1.207855
v 58.230683 49.756676 4.699013
v 82.462785 74.266297 1.650826
v 68.007218 82.048684 1.446492
v 83.901658 75.144029 1.144311
v 83.613237 75.562379 2.154933
v 94.812837 49.437669 2.380486
v 94.812410 49.437222 2.379587
v 94.812990 49.437852 2.380832
v 87.775163 56.040025 1.887628
v 93.695100 52.350121 2.357334
v 86.223451 57.265126 1.041236
v 82.407434 66.980065 5.000001
v 77.345941 66.825189 1.125545
v 89.097139 57.516145 3.534385
v 80.966066 63.252404 2.277640
v 80.868402 63.172765 2.154933
v 78.563913 65.640641 1.903863
v 78.395875 65.558549 1.035485
v 68.478784 65.917588 2.154933
v 71.892457 69.252946 1.101880
v 69.818734 67.538896 0.956570
v 68.194657 66.400651 0.738403
v 56.920655 50.339093 4.131311
v 57.890237 49.760102 4.759619
v 58.480695 49.867200 4.960009
v 77.813058 67.652467 1.854924
v 68.643693 65.716775 2.387157
v 71.250810 67.807374 2.626024
v 69.912820 67.249070 2.021738
v 68.558427 65.819924 2.277640
v 55.680444 53.357293 1.577306
v 93.612993 90.138750 3.655506
v 88.396394 83.771669 3.930259
v 89.488435 86.718629 4.310389
v 97.348772 89.506395 2.379587
v 96.396989 88.103425 1.566252
v 95.891756 89.141061 2.385849
v 95.080614 88.157777 2.011299
v 87.490480 82.257386 2.700967
v 57.281247 92.044183 2.376384
v 57.511796 90.356820 2.576385
v 64.408463 85.618318 1.114607
v 72.286096 64.378564 5.000001
v 66.358308 62.112134 2.077636
v 55.147012 88.328454 4.962766
v 97.029321 52.924661 4.699013
v 95.847742 53.066140 3.839668
v 61.201257 53.254823 4.344429
v 54.743245 51.973584 2.379587
v 57.631326 53.020013 2.387727
v 64.348481 59.214372 3.548420
v 64.633538 58.427628 3.123261
v 92.520219 56.620397 4.130692
v 89.022363 58.497651 3.006703
v 86.654306 59.093079 2.112104
v 92.969057 50.796483 1.479064
v 65.925187 81.625108 2.237094
v 61.167672 59.102441 1.114607
v 61.689866 82.689607 4.274424
v 64.384843 81.816461 3.895344
v 57.279607 92.042749 2.379587
v 95.409288 52.091225 3.353788
v 96.838243 53.335923 4.993725
v 94.538454 50.624543 2.437226
v 92.094148 83.594560 1.175489
v 80.366075 62.914445 0.741102
v 78.595124 66.291589 2.578414
v 79.754915 63.868516 0.899436
v 96.946718 52.306073 4.600689
v 86.700090 57.552983 2.350545
v 97.008325 52.587525 4.754214
v 96.446901 51.614632 4.131311
v 87.954683 79.782487 2.052621
v 94.862184 91.370042 4.349103
v 93.342912 91.451600 5.000001
v 83.394517 74.754472 0.820269
v 80.594133 72.564881 1.080515
v 83.533593 75.660051 2.277640
v 74.526986 74.780679 1.753650
v 61.526887 87.485864 2.594645
v 71.223619 78.307214 2.154933
v 72.539918 76.949136 1.935828
v 55.062695 88.555314 4.699013
v 72.844911 76.967256 0.956570
v 55.145303 89.173906 4.600689
v 69.684587 74.499902 5.000001
v 71.698747 78.599794 0.738408
v 57.279183 92.042306 2.380486
v 58.769833 89.605829 1.990598
v 59.211373 90.610185 1.405862
v 65.007401 84.571061 2.111165
v 57.279035 92.042093 2.380819
v 54.741811 51.975228 2.376384
v 54.743691 51.973161 2.380486
v 56.157807 52.187611 2.513339
v 54.743897 51.973012 2.380821
v 57.612092 49.839280 4.600689
v 64.626641 61.849904 2.343920
usemtl 160,160,160
f 6 18 3
f 6 3 70
f 70 3 37
f 70 37 4
f 4 37 40
f 4 40 5
f 5 40 42
f 5 42 72
f 72 42 18
f 72 18 6
f 95 121 108
f 108 121 113
f 113 121 150
f 113 150 163
f 163 150 161
f 150 121 105
f 150 106 161
f 150 105 151
f 151 106 150
f 105 121 149
f 149 121 69
f 149 69 148
f 148 69 107
f 107 69 66
f 107 158 148
f 148 142 149
f 142 105 149
f 66 67 107
f 107 67 110
f 67 162 110
f 68 162 67
f 107 109 158
f 158 109 167
f 158 167 166
f 109 103 167
f 109 107 110
f 141 164 157
f 141 157 142
f 142 157 105
f 157 164 167
f 157 167 159
f 167 103 159
f 101 102 103
f 102 151 159
f 159 151 105
f 157 159 105
f 103 102 159
f 104 151 102
f 106 104 161
f 161 104 111
f 111 165 110
f 104 102 103
f 103 102 101
f 104 103 165
f 103 109 165
f 110 165 109
f 104 106 151
f 104 165 111
f 142 148 141
f 141 148 158
f 95 108 2
f 110 162 111
f 111 163 161
f 108 113 2
f 2 113 112
f 2 112 162
f 2 162 68
f 112 113 163
f 111 112 163
f 162 112 111
f 167 164 166
f 166 164 141
f 166 141 158
f 61 36 172
f 172 36 134
f 172 134 171
f 134 160 171
f 134 133 160
f 160 133 131
f 134 36 129
f 129 36 62
f 129 62 84
f 84 62 16
f 84 170 129
f 129 127 134
f 127 133 134
f 170 84 75
f 16 64 84
f 84 64 128
f 64 78 128
f 65 78 64
f 128 78 173
f 128 173 80
f 84 128 75
f 75 128 169
f 128 80 82
f 128 82 169
f 74 132 127
f 127 132 133
f 132 74 169
f 169 74 76
f 169 82 132
f 83 130 82
f 130 131 82
f 82 131 132
f 132 131 133
f 160 131 81
f 99 81 100
f 100 168 173
f 173 168 80
f 131 130 81
f 81 130 168
f 168 130 82
f 82 130 83
f 168 82 80
f 81 99 160
f 81 168 100
f 127 129 74
f 74 129 75
f 75 129 170
f 61 172 79
f 100 78 97
f 100 97 99
f 99 97 171
f 171 97 172
f 172 97 79
f 100 173 78
f 77 79 97
f 78 77 97
f 61 79 65
f 65 79 77
f 65 77 78
f 171 160 99
f 169 76 75
f 75 76 74
f 56 31 89
f 89 31 179
f 179 31 152
f 179 152 182
f 152 137 182
f 152 184 137
f 137 184 185
f 152 31 57
f 152 57 154
f 154 57 181
f 181 57 25
f 181 140 154
f 73 184 154
f 154 184 152
f 25 21 181
f 181 21 155
f 60 86 21
f 21 86 155
f 155 86 88
f 155 88 175
f 181 155 140
f 140 155 90
f 140 90 91
f 155 175 187
f 155 187 90
f 178 136 73
f 73 136 184
f 136 178 90
f 90 178 180
f 90 187 136
f 183 156 187
f 135 187 156
f 187 135 136
f 135 185 136
f 184 136 185
f 137 185 98
f 185 135 98
f 87 98 186
f 87 186 176
f 176 186 88
f 98 135 186
f 186 135 187
f 135 156 187
f 187 156 183
f 186 187 175
f 87 182 98
f 186 175 88
f 73 154 178
f 178 154 140
f 55 174 85
f 88 86 176
f 182 87 179
f 179 174 89
f 55 89 174
f 177 174 179
f 177 179 87
f 85 174 177
f 177 87 176
f 177 86 85
f 86 177 176
f 56 89 55
f 85 86 60
f 60 55 85
f 137 98 182
f 90 180 91
f 91 180 178
f 91 178 140
f 50 32 115
f 115 32 116
f 116 32 139
f 116 139 117
f 139 32 145
f 139 153 117
f 139 145 153
f 153 145 126
f 145 32 147
f 147 32 51
f 147 51 143
f 143 51 138
f 138 51 34
f 138 120 143
f 143 93 147
f 93 145 147
f 34 33 138
f 138 33 146
f 29 123 33
f 33 123 146
f 146 123 122
f 138 146 120
f 120 146 118
f 120 118 119
f 146 191 118
f 96 190 93
f 93 190 145
f 190 96 118
f 118 96 192
f 118 191 190
f 144 191 189
f 144 188 191
f 188 126 191
f 191 126 190
f 190 126 145
f 153 126 92
f 114 153 92
f 114 92 193
f 114 193 125
f 125 193 122
f 126 188 92
f 92 188 191
f 188 144 191
f 191 144 189
f 92 191 193
f 191 146 193
f 122 193 146
f 114 117 153
f 93 143 96
f 96 143 120
f 123 124 125
f 125 124 114
f 114 124 116
f 114 116 117
f 50 115 94
f 94 115 116
f 125 122 123
f 94 124 29
f 29 124 123
f 94 116 124
f 50 94 29
f 118 192 119
f 119 192 96
f 119 96 120
f 47 10 22
f 47 22 11
f 47 11 23
f 23 11 15
f 23 15 63
f 23 63 45
f 45 63 30
f 45 30 46
f 46 30 59
f 46 59 24
f 24 59 20
f 24 20 58
f 24 58 49
f 49 58 54
f 49 54 27
f 27 54 53
f 27 53 26
f 26 53 35
f 26 35 52
f 26 52 48
f 48 52 1
f 48 1 9
f 48 9 28
f 28 9 10
f 28 10 47
f 2 52 95
f 95 52 12
f 95 12 121
f 121 12 39
f 121 39 8
f 121 8 69
f 69 8 66
f 66 8 10
f 10 8 7
f 10 7 22
f 22 7 61
f 2 68 52
f 52 68 1
f 1 68 67
f 1 67 9
f 9 67 10
f 10 67 66
f 22 61 65
f 22 65 11
f 11 65 64
f 11 64 15
f 15 64 63
f 63 64 16
f 63 16 19
f 63 19 44
f 63 44 30
f 30 44 56
f 19 16 62
f 19 62 71
f 62 36 71
f 71 36 38
f 38 36 7
f 7 36 61
f 30 55 60
f 30 60 21
f 30 21 59
f 59 21 25
f 59 25 20
f 20 25 17
f 20 17 14
f 20 14 58
f 58 14 50
f 17 25 57
f 17 57 43
f 43 57 31
f 43 31 44
f 44 31 56
f 56 55 30
f 58 50 29
f 58 29 54
f 54 29 33
f 54 33 53
f 53 33 34
f 53 34 35
f 35 34 13
f 35 13 12
f 35 12 52
f 34 51 13
f 13 51 41
f 41 51 32
f 41 32 14
f 14 32 50
f 47 24 28
f 28 24 49
f 28 49 27
f 28 27 48
f 48 27 26
f 24 47 46
f 46 47 23
f 46 23 45
f 18 44 3
f 3 44 19
f 3 19 71
f 44 18 43
f 43 18 17
f 17 18 42
f 17 42 14
f 14 42 41
f 41 42 13
f 13 42 40
f 13 40 12
f 12 40 39
f 39 40 8
f 8 40 37
f 8 37 7
f 7 37 38
f 38 37 3
f 38 3 71
f 72 4 5
f 4 72 70
f 6 70 72
# 193 vertices
# 0 texture params
# 0 normals
# 382 facets

# 1 groups
